## Interface: 50200
## Title: |cffC495DDTukui|r ChatTweaks
## Version: 1.11
## Author: Azilroka
## OptionalDeps: Tukui_Skins, AsphyxiaUI, DuffedUI
## SavedVariables: ChatTweaksOptions
## X-Tukui-ProjectID: 129
## X-Tukui-ProjectFolders: Tukui_ChatTweaks

Core.lua
